{
	"info": {
		"_postman_id": "1abaa152-897b-4ccd-8e26-3a9f5fccb1fa",
		"name": "Request_chaining_API",
		"schema": "https://schema.getpostman.com/json/collection/v2.1.0/collection.json",
		"_exporter_id": "27812884"
	},
	"item": [
		{
			"name": "Post_req_chaining",
			"event": [
				{
					"listen": "test",
					"script": {
						"exec": [
							"\r",
							"pm.test(\"validate status code 201\" , function(){\r",
							"    pm.response.to.have.status(201);\r",
							"});\r",
							" //fecthing request body \r",
							" var requestBody = pm.request.body.raw;\r",
							" console.log(requestBody)\r",
							" requestBody = JSON.parse(requestBody);\r",
							" //fecthing request body parameter\r",
							" var req_name = requestBody.name;\r",
							" var req_job = requestBody.job;\r",
							" console.log(req_name)\r",
							" console.log(req_job)\r",
							"\r",
							"//Fecthing response body parameter\r",
							"var responseBody = pm.response.json();\r",
							"var res_name = responseBody.name;\r",
							"var res_job = responseBody.job;\r",
							"var res_id = responseBody.id;\r",
							"var res_createdAt = responseBody.createdAt;\r",
							"\r",
							"res_createdAt = res_createdAt.substr(0,10);\r",
							"\r",
							"res_date = new Date().toISOString().substr(0,10);\r",
							"console.log(res_date);\r",
							" \r",
							" //Validating response and request body\r",
							" pm.test(\"Validate response Body parameter : name\" , function(){\r",
							"     pm.expect(res_name).to.eqls(req_name);\r",
							" })\r",
							" pm.test(\"validate response body parameter : job\" , function(){\r",
							"     pm.expect(res_job).to.eqls(req_job);\r",
							" })\r",
							" pm.test(\"validate response body parameter: Date\" , function(){\r",
							"     pm.expect(res_createdAt).to.eqls(res_date);\r",
							" });\r",
							" pm.test(\"validate response body parameter: id\" , function(){\r",
							"     pm.expect(res_id).to.not.null;\r",
							" });\r",
							"\r",
							"var responseBody = pm.response.json();\r",
							"console.log(responseBody);\r",
							"postman.setNextRequest(\"GET_TC_For_loop\");\r",
							"\r",
							"\r",
							""
						],
						"type": "text/javascript"
					}
				}
			],
			"request": {
				"method": "POST",
				"header": [],
				"body": {
					"mode": "raw",
					"raw": "{\r\n    \"name\": \"Vinita\",\r\n    \"job\": \"SrQA\"\r\n}",
					"options": {
						"raw": {
							"language": "json"
						}
					}
				},
				"url": {
					"raw": "{{Post_url}}",
					"host": [
						"{{Post_url}}"
					]
				}
			},
			"response": []
		},
		{
			"name": "Post_Req_Chaining",
			"event": [
				{
					"listen": "test",
					"script": {
						"exec": [
							"\r",
							"pm.test(\"validate status code 201\" , function(){\r",
							"    pm.response.to.have.status(201);\r",
							"});\r",
							" //fecthing request body \r",
							" var requestBody = pm.request.body.raw;\r",
							" console.log(requestBody)\r",
							" requestBody = JSON.parse(requestBody);\r",
							" //fecthing request body parameter\r",
							" var req_name = requestBody.name;\r",
							" var req_job = requestBody.job;\r",
							" console.log(req_name)\r",
							" console.log(req_job)\r",
							"\r",
							"//Fecthing response body parameter\r",
							"var responseBody = pm.response.json();\r",
							"var res_name = responseBody.name;\r",
							"var res_job = responseBody.job;\r",
							"var res_id = responseBody.id;\r",
							"var res_createdAt = responseBody.createdAt;\r",
							"\r",
							"res_createdAt = res_createdAt.substr(0,10);\r",
							"\r",
							"res_date = new Date().toISOString().substr(0,10);\r",
							"console.log(res_date);\r",
							" \r",
							" //Validating response and request body\r",
							" pm.test(\"Validate response Body parameter : name\" , function(){\r",
							"     pm.expect(res_name).to.eqls(req_name);\r",
							" })\r",
							" pm.test(\"validate response body parameter : job\" , function(){\r",
							"     pm.expect(res_job).to.eqls(req_job);\r",
							" })\r",
							" pm.test(\"validate response body parameter: Date\" , function(){\r",
							"     pm.expect(res_createdAt).to.eqls(res_date);\r",
							" });\r",
							" pm.test(\"validate response body parameter: id\" , function(){\r",
							"     pm.expect(res_id).to.not.null;\r",
							" });\r",
							"\r",
							"var responseBody = pm.response.json();\r",
							"console.log(responseBody);\r",
							"postman.setNextRequest(\"GET_TC_For_loop\");\r",
							"\r",
							"\r",
							""
						],
						"type": "text/javascript"
					}
				}
			],
			"request": {
				"method": "POST",
				"header": [],
				"body": {
					"mode": "raw",
					"raw": "{\r\n    \"name\": \"Vinita\",\r\n    \"job\": \"SrQA\"\r\n}",
					"options": {
						"raw": {
							"language": "json"
						}
					}
				},
				"url": {
					"raw": "{{Post_url}}",
					"host": [
						"{{Post_url}}"
					]
				}
			},
			"response": []
		},
		{
			"name": "GET_TC_For_loop",
			"event": [
				{
					"listen": "test",
					"script": {
						"exec": [
							"var responseBody = pm.response.json();\r",
							"\r",
							"//var count_json_obj = responseBody.per_page;\r",
							"\r",
							"var res_data_array = responseBody.data;\r",
							"var count_json_obj =Object.keys(res_data_array).length;\r",
							"var exp_id_array = [7,8,9,10,11,12];\r",
							"var exp_first_name_array = [\"Michael\", \"Lindsay\",\"Tobias\",\"Byron\",\"George\",\"Rachel\"];\r",
							"var exp_last_name_array = [\"Lawson\",\"Ferguson\",\"Funke\",\"Fields\",\"Edwards\",\"Howell\"];\r",
							"var exp_avatar_array = [\"https://reqres.in/img/faces/7-image.jpg\",\"https://reqres.in/img/faces/8-image.jpg\",\"https://reqres.in/img/faces/9-image.jpg\",\"https://reqres.in/img/faces/10-image.jpg\",\"https://reqres.in/img/faces/11-image.jpg\",\"https://reqres.in/img/faces/12-image.jpg\"];\r",
							"var exp_email_array = [\"michael.lawson@reqres.in\",\"lindsay.ferguson@reqres.in\",\"tobias.funke@reqres.in\",\"byron.fields@reqres.in\",\"george.edwards@reqres.in\",\"rachel.howell@reqres.in\"];\r",
							"\r",
							"\r",
							"\r",
							"\r",
							"for(i=0;i<count_json_obj;i++)\r",
							"{\r",
							"    pm.test(\"validate the id at index :\" +i , function(){\r",
							"    var res_id=responseBody.data[i].id;\r",
							"    var req_id = exp_id_array[i]\r",
							"    pm.expect(res_id).to.eqls(req_id);\r",
							" })\r",
							"\r",
							" pm.test(\"validate the first_name at index : \" +i , function(){\r",
							" var res_first_name = responseBody.data[i].first_name;\r",
							" var req_first_name = exp_first_name_array[i];\r",
							" pm.expect(res_first_name).to.eqls(req_first_name);   \r",
							" })\r",
							"\r",
							" pm.test(\"validate the last_name at index : \" +i , function(){\r",
							" var res_last_name = responseBody.data[i].last_name;\r",
							" var req_last_name = exp_last_name_array[i];\r",
							" pm.expect(res_last_name).to.eqls(req_last_name);   \r",
							" })\r",
							"\r",
							" pm.test(\"validate the avatar at index : \" +i , function(){\r",
							" var res_avatar = responseBody.data[i].avatar;\r",
							" var req_avatar = exp_avatar_array[i];\r",
							" pm.expect(res_avatar).to.eqls(req_avatar);   \r",
							" })\r",
							"\r",
							" pm.test(\"validate the email at index : \" +i , function(){\r",
							" var res_email = responseBody.data[i].email;\r",
							" var req_email = exp_email_array[i];\r",
							" pm.expect(res_email).to.eqls(req_email);   \r",
							" })\r",
							"\r",
							"   \r",
							"   var res_avatar=responseBody.data[i].avatar;\r",
							"   console.log(res_avatar);\r",
							"\r",
							"   var res_first_name = responseBody.data[i].first_name;\r",
							"   console.log(res_first_name);\r",
							"\r",
							"   var res_last_name = responseBody.data[i].last_name;\r",
							"   console.log(res_last_name);\r",
							"\r",
							"   var res_email = responseBody.data[i].email;\r",
							"   console.log(res_email);\r",
							"}\r",
							""
						],
						"type": "text/javascript"
					}
				}
			],
			"protocolProfileBehavior": {
				"disableBodyPruning": true
			},
			"request": {
				"method": "GET",
				"header": [],
				"body": {
					"mode": "raw",
					"raw": "",
					"options": {
						"raw": {
							"language": "json"
						}
					}
				},
				"url": {
					"raw": "https://reqres.in/api/users?page=2",
					"protocol": "https",
					"host": [
						"reqres",
						"in"
					],
					"path": [
						"api",
						"users"
					],
					"query": [
						{
							"key": "page",
							"value": "2"
						}
					]
				}
			},
			"response": []
		}
	],
	"event": [
		{
			"listen": "prerequest",
			"script": {
				"type": "text/javascript",
				"exec": [
					""
				]
			}
		},
		{
			"listen": "test",
			"script": {
				"type": "text/javascript",
				"exec": [
					""
				]
			}
		}
	],
	"variable": [
		{
			"key": "start",
			"value": "0"
		},
		{
			"key": "end",
			"value": "5",
			"type": "string"
		}
	]
}